[gd_scene load_steps=3 format=2]

[ext_resource path="res://src/scene/scripts/EnemySpawn.gd" type="Script" id=1]
[ext_resource path="res://src/scene/Enemy.tscn" type="PackedScene" id=2]

[node name="Spawner" type="Node2D"]
script = ExtResource( 1 )
Item = ExtResource( 2 )

[node name="Timer" type="Timer" parent="."]

[connection signal="timeout" from="Timer" to="." method="_on_Timer_timeout"]
